<?xml version="1.0" encoding="UTF-8" standalone="no"?>
<!-- Created with Inkscape (http://www.inkscape.org/) -->

<svg
   xmlns:dc="http://purl.org/dc/elements/1.1/"
   xmlns:cc="http://creativecommons.org/ns#"
   xmlns:rdf="http://www.w3.org/1999/02/22-rdf-syntax-ns#"
   xmlns:svg="http://www.w3.org/2000/svg"
   xmlns="http://www.w3.org/2000/svg"
   xmlns:xlink="http://www.w3.org/1999/xlink"
   xmlns:sodipodi="http://sodipodi.sourceforge.net/DTD/sodipodi-0.dtd"
   xmlns:inkscape="http://www.inkscape.org/namespaces/inkscape"
   width="64px"
   height="64px"
   id="svg33619"
   version="1.1"
   inkscape:version="0.48.1 r9760"
   sodipodi:docname="Neues Dokument 18">
  <defs
     id="defs33621">
    <filter
       color-interpolation-filters="sRGB"
       inkscape:menu-tooltip="Increase or decrease lightness and contrast"
       inkscape:menu="Color"
       inkscape:label="Lightness-Contrast"
       height="1"
       width="1"
       y="0"
       x="0"
       id="filter6242">
      <feFlood
         flood-color="rgb(128,128,128)"
         flood-opacity="0"
         result="result1"
         id="feFlood6244" />
      <feBlend
         result="result2"
         mode="normal"
         in2="SourceGraphic"
         id="feBlend6246" />
      <feComposite
         k4="0"
         k3="0"
         k1="0"
         result="result3"
         operator="arithmetic"
         k2="1"
         in2="SourceGraphic"
         id="feComposite6248" />
      <feComposite
         operator="in"
         in2="SourceGraphic"
         id="feComposite6250" />
    </filter>
    <radialGradient
       r="14.537862"
       fy="28.116049"
       fx="22.5"
       cy="28.116049"
       cx="22.5"
       gradientTransform="matrix(2.365562,0,0,2.202845,-30.72517,-34.23996)"
       gradientUnits="userSpaceOnUse"
       id="radialGradient18513"
       xlink:href="#linearGradient2257-8-5-15-685-262-276-541-542-282"
       inkscape:collect="always" />
    <linearGradient
       id="linearGradient2257-8-5-15-685-262-276-541-542-282">
      <stop
         id="stop8817"
         offset="0"
         style="stop-color:#f3f3f3" />
      <stop
         id="stop8819"
         offset="1"
         style="stop-color:#c5c5c5" />
    </linearGradient>
    <linearGradient
       y2="35.546108"
       x2="21.816015"
       y1="8.9115314"
       x1="21.702389"
       gradientUnits="userSpaceOnUse"
       id="linearGradient18515"
       xlink:href="#linearGradient3837-162-0-721-606-57-551-4-647-313"
       inkscape:collect="always" />
    <linearGradient
       id="linearGradient3837-162-0-721-606-57-551-4-647-313">
      <stop
         id="stop8823"
         offset="0"
         style="stop-color:#3c3c3c;stop-opacity:1;" />
      <stop
         id="stop8825"
         offset="1"
         style="stop-color:#ffffff;stop-opacity:0.78350514;" />
    </linearGradient>
    <radialGradient
       r="15.644737"
       fy="36.421127"
       fx="24.837126"
       cy="36.421127"
       cx="24.837126"
       gradientTransform="matrix(1,0,0,0.536723,0,16.87306)"
       gradientUnits="userSpaceOnUse"
       id="radialGradient18517"
       xlink:href="#linearGradient8662-445-9-124-224-149-998-395-664-170"
       inkscape:collect="always" />
    <linearGradient
       id="linearGradient8662-445-9-124-224-149-998-395-664-170"
       inkscape:collect="always">
      <stop
         id="stop8829"
         offset="0"
         style="stop-color:#3c3c3c;stop-opacity:1;" />
      <stop
         id="stop8831"
         offset="1"
         style="stop-color:#3c3c3c;stop-opacity:0;" />
    </linearGradient>
    <radialGradient
       r="14.537862"
       fy="28.116049"
       fx="22.5"
       cy="28.116049"
       cx="22.5"
       gradientTransform="matrix(2.365562,0,0,2.202845,-30.72517,-34.23996)"
       gradientUnits="userSpaceOnUse"
       id="radialGradient18519"
       xlink:href="#linearGradient2257-785-9-362-531-29-846-730-708-961"
       inkscape:collect="always" />
    <linearGradient
       id="linearGradient2257-785-9-362-531-29-846-730-708-961">
      <stop
         id="stop8835"
         offset="0"
         style="stop-color:#808080" />
      <stop
         id="stop8837"
         offset="1"
         style="stop-color:#4e4e4e" />
    </linearGradient>
    <radialGradient
       r="13"
       fy="-3.2182934"
       fx="21.929186"
       cy="-3.2182934"
       cx="21.929186"
       gradientTransform="matrix(3.658819,0,0,2.080782,332.03986,374.69671)"
       gradientUnits="userSpaceOnUse"
       id="radialGradient18521"
       xlink:href="#linearGradient3340-844-3-881-816-673-498-787-373-517"
       inkscape:collect="always" />
    <linearGradient
       id="linearGradient3340-844-3-881-816-673-498-787-373-517"
       inkscape:collect="always">
      <stop
         id="stop8841"
         offset="0"
         style="stop-color:#ffffff;stop-opacity:1;" />
      <stop
         id="stop8843"
         offset="1"
         style="stop-color:#ffffff;stop-opacity:0;" />
    </linearGradient>
    <radialGradient
       r="14.537862"
       fy="28.116049"
       fx="22.5"
       cy="28.116049"
       cx="22.5"
       gradientTransform="matrix(2.365562,0,0,2.202845,-30.72517,-34.23996)"
       gradientUnits="userSpaceOnUse"
       id="radialGradient18523"
       xlink:href="#linearGradient3837-162-811-6"
       inkscape:collect="always" />
    <linearGradient
       id="linearGradient3837-162-811-6">
      <stop
         id="stop8745-2"
         offset="0"
         style="stop-color:#181818;stop-opacity:1;" />
      <stop
         id="stop8747-1"
         offset="1"
         style="stop-color:#ffffff;stop-opacity:0.78350514;" />
    </linearGradient>
    <linearGradient
       y2="35.546108"
       x2="21.816015"
       y1="8.9115314"
       x1="21.702389"
       gradientUnits="userSpaceOnUse"
       id="linearGradient18525"
       xlink:href="#linearGradient3837-162-811-6"
       inkscape:collect="always" />
    <linearGradient
       id="linearGradient33667">
      <stop
         id="stop33669"
         offset="0"
         style="stop-color:#181818;stop-opacity:1;" />
      <stop
         id="stop33671"
         offset="1"
         style="stop-color:#ffffff;stop-opacity:0.78350514;" />
    </linearGradient>
    <radialGradient
       r="14.537862"
       fy="28.116049"
       fx="22.5"
       cy="28.116049"
       cx="22.5"
       gradientTransform="matrix(2.365562,0,0,2.202845,-30.72517,-34.23996)"
       gradientUnits="userSpaceOnUse"
       id="radialGradient33681"
       xlink:href="#linearGradient3837-162-811-6"
       inkscape:collect="always" />
    <linearGradient
       y2="35.546108"
       x2="21.816015"
       y1="8.9115314"
       x1="21.702389"
       gradientUnits="userSpaceOnUse"
       id="linearGradient33683"
       xlink:href="#linearGradient3837-162-811-6"
       inkscape:collect="always" />
  </defs>
  <sodipodi:namedview
     id="base"
     pagecolor="#ffffff"
     bordercolor="#666666"
     borderopacity="1.0"
     inkscape:pageopacity="0.0"
     inkscape:pageshadow="2"
     inkscape:zoom="5.5"
     inkscape:cx="32"
     inkscape:cy="32"
     inkscape:current-layer="layer1"
     showgrid="true"
     inkscape:document-units="px"
     inkscape:grid-bbox="true"
     inkscape:window-width="1676"
     inkscape:window-height="1027"
     inkscape:window-x="0"
     inkscape:window-y="19"
     inkscape:window-maximized="1" />
  <metadata
     id="metadata33624">
    <rdf:RDF>
      <cc:Work
         rdf:about="">
        <dc:format>image/svg+xml</dc:format>
        <dc:type
           rdf:resource="http://purl.org/dc/dcmitype/StillImage" />
        <dc:title></dc:title>
      </cc:Work>
    </rdf:RDF>
  </metadata>
  <g
     id="layer1"
     inkscape:label="Layer 1"
     inkscape:groupmode="layer">
    <g
       style="opacity:0.67711606"
       transform="matrix(1.6813555,0,0,1.6813555,-599.16838,-606.09603)"
       id="g9308">
      <g
         id="g6225"
         transform="translate(-43.436559,-5.0507627)"
         style="filter:url(#filter6242)">
        <path
           transform="matrix(0.920697,0,0,0.99358,398.13574,363.57591)"
           d="m 36.5,22 c 0,7.179702 -6.268014,13 -14,13 -7.731986,0 -14,-5.820298 -14,-13 0,-7.179702 6.268014,-13 14,-13 7.731986,0 14,5.820298 14,13 z"
           sodipodi:ry="13"
           sodipodi:rx="14"
           sodipodi:cy="22"
           sodipodi:cx="22.5"
           id="path3835-7"
           style="opacity:0.15;color:#000000;fill:url(#radialGradient18513);fill-opacity:1;fill-rule:evenodd;stroke:url(#linearGradient18515);stroke-width:3.13661647;stroke-linecap:square;stroke-linejoin:round;stroke-miterlimit:4;stroke-opacity:1;stroke-dasharray:none;stroke-dashoffset:0;marker:none;visibility:visible;display:inline;overflow:visible"
           sodipodi:type="arc"
           inkscape:r_cx="true"
           inkscape:r_cy="true" />
        <path
           inkscape:export-ydpi="90"
           inkscape:export-xdpi="90"
           inkscape:export-filename="/home/lapo/Desktop/Grafica/Icone/media-actions.png"
           sodipodi:type="arc"
           style="opacity:0.03999999;color:#000000;fill:url(#radialGradient18517);fill-opacity:1;fill-rule:evenodd;stroke:none;stroke-width:1;marker:none;visibility:visible;display:inline;overflow:visible"
           id="path2226-29"
           sodipodi:cx="24.837126"
           sodipodi:cy="36.421127"
           sodipodi:rx="15.644737"
           sodipodi:ry="8.3968935"
           d="m 40.481863,36.421127 c 0,4.637477 -7.004387,8.396894 -15.644737,8.396894 -8.64035,0 -15.6447375,-3.759417 -15.6447375,-8.396894 0,-4.637476 7.0043875,-8.396893 15.6447375,-8.396893 8.64035,0 15.644737,3.759417 15.644737,8.396893 z"
           transform="matrix(1.150533,0,0,0.565685,389.87976,378.48752)" />
        <path
           sodipodi:type="arc"
           style="color:#000000;fill:url(#radialGradient18519);fill-opacity:1;fill-rule:evenodd;stroke:#424242;stroke-width:1.0757246;stroke-linecap:square;stroke-linejoin:round;stroke-miterlimit:4;stroke-opacity:1;stroke-dasharray:none;stroke-dashoffset:0;marker:none;visibility:visible;display:inline;overflow:visible"
           id="path2525-0"
           sodipodi:cx="22.5"
           sodipodi:cy="22"
           sodipodi:rx="14"
           sodipodi:ry="13"
           d="m 36.5,22 c 0,7.179702 -6.268014,13 -14,13 -7.731986,0 -14,-5.820298 -14,-13 0,-7.179702 6.268014,-13 14,-13 7.731986,0 14,5.820298 14,13 z"
           transform="matrix(0.894862,0,0,0.9657,398.31204,364.59502)" />
        <path
           sodipodi:type="arc"
           style="color:#000000;fill:none;stroke:#d0d0d0;stroke-width:1.21739173;stroke-linecap:square;stroke-linejoin:round;stroke-miterlimit:4;stroke-opacity:1;stroke-dasharray:none;stroke-dashoffset:0;marker:none;visibility:visible;display:inline;overflow:visible"
           id="path2527-5"
           sodipodi:cx="24"
           sodipodi:cy="24"
           sodipodi:rx="14"
           sodipodi:ry="14"
           d="m 38,24 c 0,7.731986 -6.268014,14 -14,14 -7.731986,0 -14,-6.268014 -14,-14 0,-7.731986 6.268014,-14 14,-14 7.731986,0 14,6.268014 14,14 z"
           transform="matrix(0.821429,0,0,0.821429,398.74138,366.12612)" />
        <path
           inkscape:connector-curvature="0"
           style="opacity:0.6;fill:url(#radialGradient18521);fill-opacity:1;fill-rule:evenodd;stroke:none;display:inline"
           d="m 418.29941,373.84041 c -6.27953,0.0796 -11.40442,4.99206 -11.8125,11.1875 6.11782,2.51678 13.87042,-1.45122 23.14201,-3.38189 -0.68842,-2.74857 -4.55473,-7.80561 -11.17326,-7.80561 -0.0517,0 -0.1047,-6.5e-4 -0.15625,0 z"
           id="path2529-0"
           sodipodi:nodetypes="cccsc" />
      </g>
      <path
         inkscape:r_cy="true"
         inkscape:r_cx="true"
         sodipodi:type="arc"
         style="opacity:0.15;color:#000000;fill:url(#radialGradient33681);fill-opacity:1;fill-rule:evenodd;stroke:url(#linearGradient33683);stroke-width:3.13661647;stroke-linecap:square;stroke-linejoin:round;stroke-miterlimit:4;stroke-opacity:1;stroke-dasharray:none;stroke-dashoffset:0;marker:none;visibility:visible;display:inline;overflow:visible"
         id="path3835-2"
         sodipodi:cx="22.5"
         sodipodi:cy="22"
         sodipodi:rx="14"
         sodipodi:ry="13"
         d="m 36.5,22 c 0,7.179702 -6.268014,13 -14,13 -7.731986,0 -14,-5.820298 -14,-13 0,-7.179702 6.268014,-13 14,-13 7.731986,0 14,5.820298 14,13 z"
         transform="matrix(0.920697,0,0,0.99358,354.76791,358.92075)" />
    </g>
  </g>
</svg>
